{
  "Response": {
    "MetaInfo": {
      "Timestamp": "2016-12-28T06:25:40.013+0000"
    },
    "View": [
      {
        "_type": "SearchResultsViewType",
        "ViewId": 0,
        "Result": [
          {
            "Relevance": 1,
            "MatchLevel": "postalCode",
            "MatchQuality": {
              "PostalCode": 1
            },
            "Location": {
              "LocationId": "NT_dB-l6Y3-9Iq6Q5v29ocSaD",
              "LocationType": "area",
              "DisplayPosition": {
                "Latitude": 62.11808,
                "Longitude": -7.05297
              },
              "NavigationPosition": [
                {
                  "Latitude": 62.11808,
                  "Longitude": -7.05297
                }
              ],
              "MapView": {
                "TopLeft": {
                  "Latitude": 62.12129,
                  "Longitude": -7.06211
                },
                "BottomRight": {
                  "Latitude": 62.11505,
                  "Longitude": -7.04395
                }
              },
              "Address": {
                "Label": "330, Faroe Islands",
                "Country": "FRO",
                "County": "Kvívíkar",
                "PostalCode": "330",
                "AdditionalData": [
                  {
                    "value": "Faroe Islands",
                    "key": "CountryName"
                  },
                  {
                    "value": "Kvívíkar",
                    "key": "CountyName"
                  }
                ]
              }
            }
          },
          {
            "Relevance": 1,
            "MatchLevel": "postalCode",
            "MatchQuality": {
              "PostalCode": 1
            },
            "Location": {
              "LocationId": "NT_lfd.3xCXy9hXA2i8ekEduB",
              "LocationType": "area",
              "DisplayPosition": {
                "Latitude": 25.00377,
                "Longitude": 121.29601
              },
              "NavigationPosition": [
                {
                  "Latitude": 25.00377,
                  "Longitude": 121.29601
                }
              ],
              "MapView": {
                "TopLeft": {
                  "Latitude": 25.03322,
                  "Longitude": 121.25963
                },
                "BottomRight": {
                  "Latitude": 24.96117,
                  "Longitude": 121.33239
                }
              },
              "Address": {
                "Label": "Taiwan桃園市桃園區, 330",
                "Country": "TWN",
                "County": "桃園市",
                "City": "桃園市",
                "PostalCode": "330",
                "AdditionalData": [
                  {
                    "value": "Taiwan",
                    "key": "CountryName"
                  },
                  {
                    "value": "桃園市",
                    "key": "CountyName"
                  }
                ]
              }
            }
          }
        ]
      }
    ]
  }
}