{
  "status_code": 200,
  "data": {
    "student_id": 125,
    "status": "0",
    "location_lat": "151.19623",
    "location_lon": "-33.87929",
    "address": "330-370 Wattle St, Ultimo NSW 2007, Australia",
    "duration": "120",
    "notification_every": "30",
    "check_in_time": "2017\/01\/04 14:56:51",
    "updated_at": "2017-01-04 15:57:58",
    "created_at": "2017-01-04 15:57:58",
    "angel_id": 68
  }
}
