{
  "Response": {
    "MetaInfo": {
      "Timestamp": "2016-12-29T04:00:02.572+0000"
    },
    "View": [
      {
        "_type": "SearchResultsViewType",
        "ViewId": 0,
        "Result": [
          {
            "Relevance": 1,
            "MatchLevel": "houseNumber",
            "MatchQuality": {
              "Country": 1,
              "State": 1,
              "District": 1,
              "Street": [
                1
              ],
              "HouseNumber": 1,
              "PostalCode": 1
            },
            "MatchType": "pointAddress",
            "Location": {
              "LocationId": "NT_lHYhBn2VYhoxuqytaa1pvC_zMDMtMzNwA",
              "LocationType": "address",
              "DisplayPosition": {
                "Latitude": -33.87929,
                "Longitude": 151.19623
              },
              "NavigationPosition": [
                {
                  "Latitude": -33.87941,
                  "Longitude": 151.19593
                }
              ],
              "MapView": {
                "TopLeft": {
                  "Latitude": -33.8781658,
                  "Longitude": 151.1948759
                },
                "BottomRight": {
                  "Latitude": -33.8804142,
                  "Longitude": 151.1975841
                }
              },
              "Address": {
                "Label": "330-370 Wattle St, Ultimo NSW 2007, Australia",
                "Country": "AUS",
                "State": "NSW",
                "City": "Sydney",
                "District": "Ultimo",
                "Street": "Wattle St",
                "HouseNumber": "330-370",
                "PostalCode": "2007",
                "AdditionalData": [
                  {
                    "value": "Australia",
                    "key": "CountryName"
                  },
                  {
                    "value": "New South Wales",
                    "key": "StateName"
                  }
                ]
              }
            }
          }
        ]
      }
    ]
  }
}
