{
  "incident_id": 206,
  "priority": 3,
  "status": 2,
  "summary": "监控默默哦",
  "description": "控制中心路",
  "request_person": 1,
  "address": " 天府大道中段, 成都市, 四川省, 中国",
  "location_lat": 0,
  "location_lon": 0,
  "student_id": 107,
  "notes": null,
  "rating_result_score": 2,
  "rating_quality_score": 3,
  "rating_attitude_score": 5,
  "rating_comment": "ceafascfasc",
  "rating_time": "2016-11-23 20:17:33",
  "start_time": "2016-11-22 19:19:48",
  "close_time": "2016-11-23 13:47:22",
  "created_at": "2016-11-22 19:19:48",
  "updated_at": "2016-11-23 20:17:33",
  "lo_user": {
    "user_id": 34,
    "email": "1@qq.com",
    "name": "3qqq",
    "phone": "1254244",
    "avatar": "https:\/\/apitest.sonderaustralia.com\/uploads\/lo\/34\/avatar_34.png?1479883554",
    "status": 3,
    "verify_time": "2016-11-22 19:47:45",
    "last_location_lat": null,
    "last_location_lon": null,
    "last_location_address": null,
    "last_login_time": "2016-11-23 17:47:17",
    "on_shift": 0,
    "onesignal_id": null,
    "created_at": "2016-11-22 19:41:19",
    "updated_at": "2016-11-29 10:45:36"
  },
  "operator": {
    "user_id": 10,
    "email": "ssc5@hatron.com",
    "name": "Hatron ssc 4",
    "phone": "87913213",
    "avatar": "https:\/\/apitest.sonderaustralia.com\/uploads\/ssc\/10\/avatar_10.jpg?1478495373",
    "is_manager": 0,
    "status": 1,
    "verify_time": "2016-11-10 15:17:07",
    "last_login_time": null,
    "is_accept_policy": 0,
    "onesignal_id": null,
    "created_at": "2016-11-07 16:09:32",
    "updated_at": "2016-11-10 15:17:07"
  },
  "attachments": [
    {
      "attachment_id": 155,
      "incident_id": 206,
      "type": 2,
      "name": "attachment1",
      "attachment_url": "https:\/\/apitest.sonderaustralia.com\/uploads\/incident\/206\/147980278852549955",
      "file_size": 126727,
      "created_at": "2016-11-22 19:19:48",
      "updated_at": "2016-11-22 19:19:48"
    }
  ],
  "posts": [
    {
      "post_id": 423,
      "incident_id": 206,
      "post_type": 5,
      "post_visibility": 1,
      "attachment_url": null,
      "attachment_name": null,
      "attachment_size": null,
      "content": "1 created a new incident at  天府大道中段, 成都市, 四川省, 中国",
      "author_id": 107,
      "author_type": "App\\Models\\Student",
      "created_at": "2016-11-22 19:19:48",
      "updated_at": "2016-11-22 19:19:48",
      "author_avatar": "https:\/\/apitest.sonderaustralia.com\/uploads\/student\/107\/avatar_107.png?1479969421"
    },
    {
      "post_id": 484,
      "incident_id": 206,
      "post_type": 5,
      "post_visibility": 1,
      "attachment_url": null,
      "attachment_name": null,
      "attachment_size": null,
      "content": "OP1 updated an incident.",
      "author_id": 13,
      "author_type": "App\\Models\\SscUser",
      "created_at": "2016-11-23 13:25:47",
      "updated_at": "2016-11-23 13:25:47",
      "author_avatar": "https:\/\/apitest.sonderaustralia.com\/uploads\/protal\/13\/avatar_13.png?1479878591"
    },
    {
      "post_id": 487,
      "incident_id": 206,
      "post_type": 6,
      "post_visibility": 1,
      "attachment_url": null,
      "attachment_name": null,
      "attachment_size": null,
      "content": "那 closed an incident.",
      "author_id": 107,
      "author_type": "App\\Models\\Student",
      "created_at": "2016-11-23 13:47:22",
      "updated_at": "2016-11-23 13:47:22",
      "author_avatar": "https:\/\/apitest.sonderaustralia.com\/uploads\/student\/107\/avatar_107.png?1479969421"
    }
  ]
}