{
  "token": "eyJ0eXAiOiJKV1QiLCJhbGciOiJIUzI1NiJ9.eyJzdWIiOjEwOCwiaXNzIjoiaHR0cDpcL1wvc3R1ZGVudFwvYXBpXC9zdHVkZW50XC9sb2dpbiIsImlhdCI6MTQ4MTI1ODc2MywiZXhwIjoxNzk2NjE4NzYzLCJuYmYiOjE0ODEyNTg3NjMsImp0aSI6ImQ1MzA4ZTA4ZGFjYWNmMWUzOWRkM2RmMzUzMzdiOTdjIn0.L2mIZ475FXsex4oaBp0lbOBJxlcnwpZs4Kq8mQJUGXU",
  "student": {
    "student_id": 108,
    "email": "ivan@cretve.com",
    "status": 1,
    "full_name": "Ivan Guan",
    "preferred_name": "Ivan",
    "dob": "1990-11-29",
    "address": "",
    "last_known_lat": null,
    "last_known_lon": null,
    "last_known_address": null,
    "plan_level": 0,
    "plan_expiry": null,
    "avatar": "https:\/\/apitest.sonderaustralia.com\/uploads\/student\/108\/avatar_108.png?1480458554",
    "phone_number": "0424012345",
    "gender": 0,
    "profile_completion": 75,
    "last_login_time": "2016-12-09 15:45:28",
    "onesignal_id": null,
    "is_safe": 1,
    "created_at": "2016-11-23 09:48:22",
    "updated_at": "2016-12-09 15:45:28"
  }
}}
