{
  "status_code": 200,
  "data": {
    "post_id": 329,
    "incident_id": 10,
    "post_type": 2,
    "post_visibility": 1,
    "attachment_url": "https:\/\/apitest.sonderaustralia.com\/uploads\/incident\/10\/147945514697554950",
    "attachment_name": "attachment",
    "attachment_size": 24269,
    "content": "oliver zhao2 uploaded an image.",
    "author_id": 20,
    "author_type": "App\\Models\\Student",
    "created_at": "2016-11-18 18:45:46",
    "updated_at": "2016-11-18 18:45:46"
  }
}
