{
  "Response": {
    "MetaInfo": {
      "Timestamp": "2017-01-04T03:28:22.666+0000"
    },
    "View": [
      {
        "_type": "SearchResultsViewType",
        "ViewId": 0,
        "Result": [
          {
            "Relevance": 1,
            "Distance": -617723.6,
            "Direction": 325.8,
            "MatchLevel": "city",
            "MatchQuality": {
              "Country": 1,
              "City": 1
            },
            "Location": {
              "LocationId": "NT_Cpc-xgHOg8wWBzjGCW9k6B",
              "LocationType": "area",
              "DisplayPosition": {
                "Latitude": 36.89451,
                "Longitude": 98.60295
              },
              "MapView": {
                "TopLeft": {
                  "Latitude": 53.56017,
                  "Longitude": 73.55757
                },
                "BottomRight": {
                  "Latitude": 18.16154,
                  "Longitude": 134.76957
                }
              },
              "Address": {
                "Label": "China",
                "Country": "CHN",
                "City": "China",
                "AdditionalData": [
                  {
                    "value": "China",
                    "key": "CountryName"
                  }
                ]
              },
              "MapReference": {
                "ReferenceId": "720868577",
                "MapId": "PZAM16142",
                "MapVersion": "Q1\/2016",
                "MapReleaseDate": "2016-12-15",
                "SideOfStreet": "neither",
                "CountryId": "22928332",
                "CityId": "22928318"
              }
            }
          }
        ]
      }
    ]
  }
}
