{
  "status_code": 200,
  "message": "success",
  "data": {
    "incident_id": 163,
    "priority": 3,
    "status": 0,
    "summary": "ccacc",
    "description": "csascc",
    "request_person": 2,
    "address": "\u4e2d\u56fd \u56db\u5ddd\u7701\u6210\u90fd\u5e02\u6b66\u4faf\u533a \u5929\u5e9c\u4e8c\u8857",
    "location_lat": 30.5512,
    "location_lon": 104.049,
    "student_id": 20,
    "notes": null,
    "rating_result_score": null,
    "rating_quality_score": null,
    "rating_attitude_score": null,
    "rating_comment": null,
    "rating_time": null,
    "start_time": "2016-11-16 17:23:32",
    "close_time": null,
    "created_at": "2016-11-16 17:23:32",
    "updated_at": "2016-11-16 17:23:32",
    "lo_user": null,
    "operator": null,
    "attachments": [],
    "posts": [
      {
        "post_id": 268,
        "incident_id": 163,
        "post_type": 5,
        "post_visibility": 1,
        "attachment_url": null,
        "attachment_name": null,
        "attachment_size": null,
        "content": "oliver zhao created a new incident at \u4e2d\u56fd \u56db\u5ddd\u7701\u6210\u90fd\u5e02\u6b66\u4faf\u533a \u5929\u5e9c\u4e8c\u8857",
        "author_id": 20,
        "author_type": "App\\Models\\Student",
        "created_at": "2016-11-16 17:23:32",
        "updated_at": "2016-11-16 17:23:32",
        "author_avatar": "http:\/\/apitest.sonderaustralia.com\/uploads\/student\/20\/avatar_20.?1479180511"
      }
    ]
  }
}
